…
#>   `On foot` = col_double(),
#>   `Other method of travel to work` = col_double()
#> )
#> 
#> ── Column specification ────────────────────────────────────────────────────────
#> cols(
#>   MSOA11CD = col_character(),
#>   MSOA11NM = col_character(),
#>   BNGEAST = col_double(),
#>   BNGNORTH = col_double(),
#>   LONGITUDE = col_double(),
#>   LATITUDE = col_double()
#> )
od_national
#> # A tibble: 2,402,201 x 18
#>    geo_code1 geo_code2   all from_home light_rail train   bus  taxi motorbike
#>    <chr>     <chr>     <dbl>     <dbl>      <dbl> <dbl> <dbl> <dbl>     <dbl>
#>  1 E02000001 E02000001  1506         0         73    41    32     9         1
#>  2 E02000001 E02000014     2         0          2     0     0     0         0
#>  3 E02000001 E02000016     3         0          1     0     2     0         0
#>  4 E02000001 E02000025     1         0          0     1     0     0         0
#>  5 E02000001 E02000028     1         0          0     0     0     0         0
#>  6 E02000001 E02000051     1         0          1     0     0     0         0
#>  7 E02000001 E02000053     2         0          2     0     0     0         0
#>  8 E02000001 E02000057     1         0          1     0     0     0         0
#>  9 E02000001 E02000058     1         0          0     0     0     0         0
#> 10 E02000001 E02000059     1         0          0     0     0     1         0
#> # … with 2,402,191 more rows, and 9 more variables: car_driver <dbl>,
#> #   car_passenger <dbl>, bicycle <dbl>, foot <dbl>, other <dbl>,
#> #   geo_name1 <chr>, geo_name2 <chr>, la_1 <chr>, la_2 <chr>
```
…
